
{
    "subject":"ACC",
    "number":100,
    "year":2018,
    "semester":"Fall",
    "title":"hello",
    "logos":{
        "favicon":{
            "href":"./images/Favicon.ico"
        },
        "navbar":{
            "href":"./images/Navbar.png",
            "src":"./images/Navbar.png"
        },
        "bottom_left":{
            "href":"./images/Left Footer.png",
            "src":"./images/Navbar.png"
        },
        "bottom_right":{
            "href":"./images/Right Footer.png",
            "src":"./images/Navbar.png"
        }
    },
    "instructor":{
        "name":"me",
        "link":"",
        "email":"me@not.net",
        "room":"",
        "hours":[
            {
                "day":"Monday",
                "time":"8AM-10AM"
            }
        ]
    },
    "pages":[
        {
            "name":"Home",
            "link":"index.html"
        },
        {
            "name":"HWs",
            "link":"hws.html"
        },
        {
            "name":"Schedule",
            "link":"schedule.html"
        },
        {
            "name":"Syllabus",
            "link":"syllabus.html"
        }
    ]
}